vivado/ultrascale_plus/.Xil/Vivado-773041-fedora/hw_ila_data_1/zip_work/waveform.vcd
$date
        2024-Dec-06 16:32:55
$end
$version
        Vivado v2023.2 (64-bit)
$end
$timescale
        1ps
$end
$scope module dut $end
$var reg 24 " design_1_i/system_ila_0/U0/net_slot_0_axis_tdata [23:0] $end
$var reg 2 : design_1_i/system_ila_0/U0/net_slot_0_axis_tid [1:0] $end
$var reg 1 < design_1_i/system_ila_0/U0/net_slot_0_axis_tvalid $end
$var reg 1 = design_1_i/system_ila_0/U0/net_slot_0_axis_tready $end
$var reg 1 > design_1_i/system_ila_0/U0/net_slot_0_axis_tlast $end
$var reg 32 ? design_1_i/system_ila_0/U0/net_slot_1_axis_tdata [31:0] $end
$var reg 2 _ design_1_i/system_ila_0/U0/net_slot_1_axis_tid [1:0] $end
$var reg 1 a design_1_i/system_ila_0/U0/net_slot_1_axis_tvalid $end
$var reg 1 b design_1_i/system_ila_0/U0/net_slot_1_axis_tready $end
$var reg 1 c design_1_i/system_ila_0/U0/net_slot_1_axis_tlast $end
$var reg 32 d design_1_i/system_ila_0/U0/net_slot_2_axis_tdata [31:0] $end
$var reg 1 &" design_1_i/system_ila_0/U0/net_slot_2_axis_tvalid $end
$var reg 1 '" design_1_i/system_ila_0/U0/net_slot_2_axis_tready $end
$var reg 1 (" design_1_i/system_ila_0/U0/net_slot_2_axis_tlast $end
$var reg 3 )" Interface__i1_s0___audio_fifo_wrapper_1_s_out_ [2:0] $end
$var reg 3 ," T_Channel__i1_s0___audio_fifo_wrapper_1_s_out_ [2:0] $end
$var reg 1 /" _TRIGGER $end
$var reg 1 0" _WINDOW $end
$var reg 1 1" _GAP $end
$upscope $end
$enddefinitions $end
#0
$dumpvars
b101101100111100110111 "
b1 :
0<
1=
0>
b0 ?
b1 _
0a
1b
0c
b0 d
0&"
0'"
0("
b0 )"
b0 ,"
0/"
10"
01"
$end
#265
b100100011110010101011 "
b0 :
1<
1'"
b1 )"
b1 ,"
#266
0<
0'"
b0 )"
b0 ,"
#314
b0 _
1a
#315
0a
#1306
b100100011011110011010 "
b1 :
1<
1'"
b1 )"
b1 ,"
#1307
0<
0'"
b0 )"
b0 ,"
#1355
b1 _
1a
#1356
0a
#2348
b100011011110110001110 "
b0 :
1<
1'"
b1 )"
b1 ,"
#2349
0<
0'"
b0 )"
b0 ,"
#2396
b0 _
1a
#2397
0a
#3390
b100011000100011100000 "
b1 :
1<
1'"
b1 )"
b1 ,"
#3391
0<
0'"
b0 )"
b0 ,"
#3439
b1 _
1a
#3440
0a
#4431
b11110000101000110000 "
b0 :
1<
1'"
b1 )"
b1 ,"
#4432
0<
0'"
b0 )"
b0 ,"
#4480
b0 _
1a
#4481
0a
#5473
b100100010101011110011 "
b1 :
1<
1'"
b1 )"
b1 ,"
#5474
0<
0'"
b0 )"
b0 ,"
#5523
b1 _
1a
#5524
0a
#6515
b10111110001110001011 "
b0 :
1<
1'"
b1 )"
b1 ,"
#6516
0<
0'"
b0 )"
b0 ,"
#6564
b0 _
1a
#6565
0a
#7556
b100001111010101010011 "
b1 :
1<
1'"
b1 )"
b1 ,"
#7557
0<
0'"
b0 )"
b0 ,"
#7605
b1 _
1a
#7606
0a
#8598
b10010101101001000100 "
b0 :
1<
1'"
b1 )"
b1 ,"
#8599
0<
0'"
b0 )"
b0 ,"
#8646
b0 _
1a
#8647
0a
#9640
b11000111001110111000 "
b1 :
1<
1'"
b1 )"
b1 ,"
#9641
0<
0'"
b0 )"
b0 ,"
#9689
b1 _
1a
#9690
0a
#10681
b1011001100100110100 "
b0 :
1<
1'"
b1 )"
b1 ,"
#10682
0<
0'"
b0 )"
b0 ,"
#10730
b0 _
1a
#10731
0a
#11723
b1011110000100011101 "
b1 :
1<
1'"
b1 )"
b1 ,"
#11724
0<
0'"
b0 )"
b0 ,"
#11773
b1 _
1a
#11774
0a
#12765
b110011110001000101 "
b0 :
1<
1'"
b1 )"
b1 ,"
#12766
0<
0'"
b0 )"
b0 ,"
#12814
b0 _
1a
#12815
0a
#13806
b1100101111100100001 "
b1 :
1<
1'"
b1 )"
b1 ,"
#13807
0<
0'"
b0 )"
b0 ,"
#13855
b1 _
1a
#13856
0a
#14848
b1110000110011000101 "
b0 :
1<
1'"
b1 )"
b1 ,"
#14849
0<
0'"
b0 )"
b0 ,"
#14896
b0 _
1a
#14897
0a
#15890
b100010111111111100011 "
b1 :
1<
1'"
b1 )"
b1 ,"
#15891
0<
0'"
b0 )"
b0 ,"
#15939
b1 _
1a
#15940
0a
#16384
1/"
#16931
b10101111011001100101 "
b0 :
1<
1'"
b1 )"
b1 ,"
#16932
0<
0'"
b0 )"
b0 ,"
#16980
b0 _
1a
#16981
0a
#17973
b101110010101011111100 "
b1 :
1<
1'"
b1 )"
b1 ,"
#17974
0<
0'"
b0 )"
b0 ,"
#18023
b1 _
1a
#18024
0a
#19015
b1110010010101111010 "
b0 :
1<
1'"
b1 )"
b1 ,"
#19016
0<
0'"
b0 )"
b0 ,"
#19064
b0 _
1a
#19065
0a
#20056
b11010010110101110100 "
b1 :
1<
1'"
b1 )"
b1 ,"
#20057
0<
0'"
b0 )"
b0 ,"
#20105
b1 _
1a
#20106
0a
#21098
b1011011110111100111 "
b0 :
1<
1'"
b1 )"
b1 ,"
#21099
0<
0'"
b0 )"
b0 ,"
#21146
b0 _
1a
#21147
0a
#22140
b1001011110111101001 "
b1 :
1<
1'"
b1 )"
b1 ,"
#22141
0<
0'"
b0 )"
b0 ,"
#22189
b1 _
1a
#22190
0a
#23181
b100001010001111010101 "
b0 :
1<
1'"
b1 )"
b1 ,"
#23182
0<
0'"
b0 )"
b0 ,"
#23230
b0 _
1a
#23231
0a
#24223
b10011111001000110011 "
b1 :
1<
1'"
b1 )"
b1 ,"
#24224
0<
0'"
b0 )"
b0 ,"
#24273
b1 _
1a
#24274
0a
#25265
b110010011110001110100 "
b0 :
1<
1'"
b1 )"
b1 ,"
#25266
0<
0'"
b0 )"
b0 ,"
#25314
b0 _
1a
#25315
0a
#26306
b11011000010110010001 "
b1 :
1<
1'"
b1 )"
b1 ,"
#26307
0<
0'"
b0 )"
b0 ,"
#26355
b1 _
1a
#26356
0a
#27348
b100100111010001110110 "
b0 :
1<
1'"
b1 )"
b1 ,"
#27349
0<
0'"
b0 )"
b0 ,"
#27396
b0 _
1a
#27397
0a
#28390
b1110000110010011111 "
b1 :
1<
1'"
b1 )"
b1 ,"
#28391
0<
0'"
b0 )"
b0 ,"
#28439
b1 _
1a
#28440
0a
#29431
b10000100100101010101 "
b0 :
1<
1'"
b1 )"
b1 ,"
#29432
0<
0'"
b0 )"
b0 ,"
#29480
b0 _
1a
#29481
0a
#30473
b1001101010000001100 "
b1 :
1<
1'"
b1 )"
b1 ,"
#30474
0<
0'"
b0 )"
b0 ,"
#30523
b1 _
1a
#30524
0a
#31515
b1100001101001110110 "
b0 :
1<
1'"
b1 )"
b1 ,"
#31516
0<
0'"
b0 )"
b0 ,"
#31564
b0 _
1a
#31565
0a
#32556
b11010000001111111010 "
b1 :
1<
1'"
b1 )"
b1 ,"
#32557
0<
0'"
b0 )"
b0 ,"
#32605
b1 _
1a
#32606
0a
